Chapter 2 前準備(1-1) | Python医療データ分析本をRでやる
…
ある年に、FemaleとMaleが何人生まれたかのデータになっている。

性別列を作って縦に持っておく。

library(tidyr)
library(magrittr)
dat %>%  
        pivot_longer(cols = c("Male", "Female"), names_to = "Sex", values_to = "Life") %>% 
        mutate(Sex = if_else(Sex == "Female", "F", "M")) -> dat
dat

## # A tibble: 140 x 4
##     Year   Total Sex      Life
##    <int>   <int> <chr>   <int>
##  1  1947 2678792 M     1376986
##  2  1947 2678792 F     1301806
##  3  1948 2681624 M     1378564
##  4  1948 2681624 F     1303060
##  5  1949 2696638 M     1380008
##  6  1949 2696638 F     1316630
##  7  1950 2337507 M     1203111
##  8  1950 2337507 F     1134396
##  9  1951 2137689 M     1094641
## 10  1951 2137689 F     1043048
## # … with 130 more rows
…
