Chapter 2 死亡率の推定 | Python医療データ分析本をRでやる
…
ある年に、FemaleとMaleが何人生まれたかのデータになっている。

乱数を利用して、誕生年と性別をサンプリングしたい。性別列を作って縦に持っておく。

library(tidyr)
library(magrittr)
dat %>%  
  pivot_longer(cols = c("Male", "Female"), names_to = "Sex", values_to = "Life") %>% 
  mutate(Sex = if_else(Sex == "Female", "F", "M")) -> dat
dat

## # A tibble: 146 × 4
##     Year   Total Sex      Life
##    <int>   <int> <chr>   <int>
##  1  1947 2678792 M     1376986
##  2  1947 2678792 F     1301806
##  3  1948 2681624 M     1378564
##  4  1948 2681624 F     1303060
##  5  1949 2696638 M     1380008
##  6  1949 2696638 F     1316630
##  7  1950 2337507 M     1203111
##  8  1950 2337507 F     1134396
##  9  1951 2137689 M     1094641
## 10  1951 2137689 F     1043048
## # … with 136 more rows
…
dat %<>%
  arrange(Sex, Year)
dat %<>%
  mutate(ratio = Life / sum(Life)) %>%
  mutate(cum_sum = cumsum(ratio))

dat %>% 
  select(-Total) %>% 
  write.csv("./data/ipss_birth.csv", row.names=FALSE, quote = FALSE)
## 内容確認
dat %>% 
  select(-Total) %>% 
  head(100)

## # A tibble: 100 × 5
##     Year Sex      Life   ratio cum_sum
##    <int> <chr>   <int>   <dbl>   <dbl>
##  1  1947 F     1301806 0.0118   0.0118
##  2  1948 F     1303060 0.0119   0.0237
##  3  1949 F     1316630 0.0120   0.0357
##  4  1950 F     1134396 0.0103   0.0460
##  5  1951 F     1043048 0.00949  0.0555
##  6  1952 F      977101 0.00889  0.0644
##  7  1953 F      910516 0.00829  0.0727
##  8  1954 F      858368 0.00781  0.0805
##  9  1955 F      841022 0.00765  0.0882
## 10  1956 F      809194 0.00736  0.0955
## # … with 90 more rows
…
